Introducción práctica a la programación en R - Programación y reproducibilidad
…
Máximo brainwt para cada orden

msleep %>% group_by(order) %>% 
  slice_max(brainwt,n=1)

# A tibble: 21 × 11
# Groups:   order [19]
   name   genus vore  order conservation sleep_total sleep_rem sleep_cycle awake
   <chr>  <chr> <chr> <chr> <chr>              <dbl>     <dbl>       <dbl> <dbl>
 1 Tenrec Tenr… omni  Afro… <NA>                15.6       2.3      NA       8.4
 2 Cow    Bos   herbi Arti… domesticated         4         0.7       0.667  20  
 3 Gray … Hali… carni Carn… lc                   6.2       1.5      NA      17.8
 4 Pilot… Glob… carni Ceta… cd                   2.7       0.1      NA      21.4
 5 Commo… Phoc… carni Ceta… vu                   5.6      NA        NA      18.4
 6 Bottl… Turs… carni Ceta… <NA>                 5.2      NA        NA      18.8
 7 Big b… Epte… inse… Chir… lc                  19.7       3.9       0.117   4.3
 8 Giant… Prio… inse… Cing… en                  18.1       6.1      NA       5.9
 9 North… Dide… omni  Dide… lc                  18         4.9       0.333   6  
10 Phala… Phal… <NA>  Dipr… <NA>                13.7       1.8      NA      10.3
# ℹ 11 more rows
# ℹ 2 more variables: brainwt <dbl>, bodywt <dbl>
…
[[2]]
# A tibble: 32 × 11
   name   genus vore  order conservation sleep_total sleep_rem sleep_cycle awake
   <chr>  <chr> <chr> <chr> <chr>              <dbl>     <dbl>       <dbl> <dbl>
 1 Mount… Aplo… herbi Rode… nt                  14.4       2.4      NA       9.6
 2 Cow    Bos   herbi Arti… domesticated         4         0.7       0.667  20  
 3 Three… Brad… herbi Pilo… <NA>                14.4       2.2       0.767   9.6
 4 Roe d… Capr… herbi Arti… lc                   3        NA        NA      21  
 5 Goat   Capri herbi Arti… lc                   5.3       0.6      NA      18.7
 6 Guine… Cavis herbi Rode… domesticated         9.4       0.8       0.217  14.6
 7 Chinc… Chin… herbi Rode… domesticated        12.5       1.5       0.117  11.5
 8 Tree … Dend… herbi Hyra… lc                   5.3       0.5      NA      18.7
 9 Asian… Elep… herbi Prob… en                   3.9      NA        NA      20.1
10 Horse  Equus herbi Peri… domesticated         2.9       0.6       1      21.1
# ℹ 22 more rows
# ℹ 2 more variables: brainwt <dbl>, bodywt <dbl>
…
